[gd_scene load_steps=5 format=2]

[ext_resource path="res://Bullet.gd" type="Script" id=1]
[ext_resource path="res://bullet.png" type="Texture" id=2]
[ext_resource path="res://8d82b5_Galaga_Firing_Sound_Effect.ogg" type="AudioStream" id=3]

[sub_resource type="RectangleShape2D" id=1]
extents = Vector2( 2, 8 )

[node name="Bullet" type="Area2D"]
position = Vector2( 120, 400 )
script = ExtResource( 1 )
__meta__ = {
"_edit_group_": true
}

[node name="Sprite" type="Sprite" parent="."]
texture = ExtResource( 2 )

[node name="CollisionShape2D" type="CollisionShape2D" parent="."]
shape = SubResource( 1 )

[node name="AudioFire" type="AudioStreamPlayer2D" parent="."]
stream = ExtResource( 3 )
