[gd_scene load_steps=4 format=2]

[ext_resource path="res://Player.gd" type="Script" id=1]
[ext_resource path="res://ship.png" type="Texture" id=2]

[sub_resource type="RectangleShape2D" id=1]
extents = Vector2( 15, 15 )

[node name="Node2D" type="Node2D"]

[node name="Player" type="Area2D" parent="."]
position = Vector2( 125.25, 436.05 )
scale = Vector2( 0.5, 0.5 )
script = ExtResource( 1 )
__meta__ = {
"_edit_group_": true
}

[node name="Sprite" type="Sprite" parent="Player"]
texture = ExtResource( 2 )

[node name="CollisionShape2D" type="CollisionShape2D" parent="Player"]
shape = SubResource( 1 )

[node name="ReloadTimer" type="Timer" parent="Player"]
wait_time = 0.25
autostart = true
